Example Analysis • survival
…
table(ipf_lifts_event$elite)
#> 
#>     0     1 
#> 13126  4389

#Now creating a "time" variable that measures the number of days since the first recorded competition for each player
ipf_lifts_time = ipf_lifts_event %>%
  group_by(name) %>%
  mutate(time = as.numeric(date)-min(as.numeric(date)))

ipf_lifts_time %>%
  group_by(name) %>%
  summarize(max(time))
#> # A tibble: 9,425 × 2
#>    name              `max(time)`
#>    <chr>                   <dbl>
#>  1 A Ernandos-Ortega           0
#>  2 A. Avalio                   0
#>  3 A. Candelaria               0
#>  4 A. Croeneboom               0
#>  5 A. De Vega                  0
#>  6 A. Doria                 1099
#>  7 A. Flimu                    0
#>  8 A. George                   0
#>  9 A. Grados                   0
#> 10 A. Gupta                    0
#> # ℹ 9,415 more rows
…
